<?xml version="1.0" encoding="UTF-8"?>
<metadata:Metadata xmi:version="2.0" xmlns:xmi="http://www.omg.org/XMI" xmlns:metadata="http://www.polarsys.org/kitalpha/ad/metadata/1.0.0" id="__ZcSEHiREeyNMblQmwLPKg">
  <viewpointReferences id="__o8GoHiREeyNMblQmwLPKg" vpId="org.polarsys.capella.core.viewpoint" version="5.2.0"/>
</metadata:Metadata>
